Calculate protein molecular weight — calc_MW_peptide • bstringr
…
    calc_MW_peptide.Rd

    Calculate protein molecular weight

calc_MW_peptide(astrobj)

    Arguments

      astrobj
      astr object.

    Examples

astr_rand_seq(3, 100) %>% calc_MW_peptide()
#> # A tibble: 60 x 8
#>      len name      aa    count percent aa_mw aa_mw_sum pep_mw
#>    <dbl> <chr>     <chr> <int>   <dbl> <dbl>     <dbl>  <dbl>
#>  1    97 no name 1 A         5    5.15  71.1      355. 10792.
#>  2    97 no name 1 R         4    4.12 156.       625. 10792.
#>  3    97 no name 1 N        10   10.3  114.      1141. 10792.
#>  4    97 no name 1 D         6    6.19 115.       691. 10792.
#>  5    97 no name 1 C         8    8.25 103.       825. 10792.
#>  6    97 no name 1 Q         1    1.03 128.       128. 10792.
#>  7    97 no name 1 E         5    5.15 129.       646. 10792.
#>  8    97 no name 1 G         9    9.28  57.1      513. 10792.
#>  9    97 no name 1 H         4    4.12 137.       549. 10792.
#> 10    97 no name 1 I         5    5.15 113.       566. 10792.
#> # … with 50 more rows
…
